<?xml version="1.0" encoding="UTF-8" standalone="no"?>
<!-- Generator: Adobe Illustrator 21.1.0, SVG Export Plug-In . SVG Version: 6.00 Build 0)  -->

<svg
   xmlns:dc="http://purl.org/dc/elements/1.1/"
   xmlns:cc="http://creativecommons.org/ns#"
   xmlns:rdf="http://www.w3.org/1999/02/22-rdf-syntax-ns#"
   xmlns:svg="http://www.w3.org/2000/svg"
   xmlns="http://www.w3.org/2000/svg"
   xmlns:sodipodi="http://sodipodi.sourceforge.net/DTD/sodipodi-0.dtd"
   xmlns:inkscape="http://www.inkscape.org/namespaces/inkscape"
   version="1.1"
   id="Layer_1"
   x="0px"
   y="0px"
   viewBox="0 0 100 100"
   xml:space="preserve"
   sodipodi:docname="gitlab.svg"
   width="100"
   height="100"
   inkscape:version="0.92.4 5da689c313, 2019-01-14"><metadata
     id="metadata37"><rdf:RDF><cc:Work
         rdf:about=""><dc:format>image/svg+xml</dc:format><dc:type
           rdf:resource="http://purl.org/dc/dcmitype/StillImage" /><dc:title></dc:title></cc:Work></rdf:RDF></metadata><defs
     id="defs35" /><sodipodi:namedview
     pagecolor="#ffffff"
     bordercolor="#666666"
     borderopacity="1"
     objecttolerance="10"
     gridtolerance="10"
     guidetolerance="10"
     inkscape:pageopacity="0"
     inkscape:pageshadow="2"
     inkscape:window-width="640"
     inkscape:window-height="480"
     id="namedview33"
     showgrid="false"
     inkscape:showpageshadow="false"
     inkscape:snap-page="true"
     inkscape:zoom="5.4814815"
     inkscape:cx="23.961226"
     inkscape:cy="53.656797"
     inkscape:current-layer="Layer_1" /><path
     inkscape:connector-curvature="0"
     id="gitlab"
     d="M 49.901131,100.00244 1.4054271,64.73284 C 0.80424071,64.332049 0.2030543,63.530467 0.0026588,62.728885 c -0.2003955,-0.801582 -0.2003955,-1.603165 0,-2.404746 L 5.613732,43.290524 Z M 20.442996,9.0228985 31.464748,43.290524 H 5.613732 L 16.635484,9.0228985 c 0.200394,-0.801582 1.001976,-1.202373 1.803558,-1.202373 1.202373,-0.2003954 1.80356,0.400791 2.003954,1.202373 z M 31.464748,43.290524 H 68.337514 L 49.901131,100.00244 Z M 100,60.524534 c 0.20039,0.801582 0.20039,1.603164 0,2.404747 -0.200396,0.801581 -0.801583,1.402768 -1.40277,2.003954 L 49.901131,100.00244 94.188531,43.290524 Z M 94.188531,43.290524 H 68.53791 L 79.559661,9.0228985 c 0.200395,-0.801582 1.001977,-1.202373 1.80356,-1.202373 1.001977,0 1.603164,0.400791 1.803559,1.202373 z"
     style="stroke-width:2.00395489" /></svg>